{
  "project_info": {
    "project_number": "527165199246",
    "firebase_url": "https://yelo-c19f6.firebaseio.com",
    "project_id": "yelo-c19f6",
    "storage_bucket": "yelo-c19f6.appspot.com"
  },
  "client": [
    {
      "client_info": {
        "mobilesdk_app_id": "1:527165199246:android:411704a430b42c5e",
        "android_client_info": {
          "package_name": "com.yelo.com"
        }
      },
      "oauth_client": [
        {
          "client_id": "527165199246-1hj4creseke8pko22uvhv2her0ir8037.apps.googleusercontent.com",
          "client_type": 3
        }
      ],
      "api_key": [
        {
          "current_key": "AIzaSyBwappqjBAJTYiGXleW_bzVr0o5as8zRIs"
        }
      ],
      "services": {
        "analytics_service": {
          "status": 1
        },
        "appinvite_service": {
          "status": 1,
          "other_platform_oauth_client": []
        },
        "ads_service": {
          "status": 2
        }
      }
    }
  ],
  "configuration_version": "1"
}